# vtk DataFile Version 2.0
scriptGenGmsh, Created by Gmsh
ASCII
DATASET UNSTRUCTURED_GRID
POINTS 84 double
0 0 0
10 0 0
10 1 0
0 1 0
0 0 1
10 0 1
10 1 1
0 1 1
0.9999999999991859 1 1
1.999999999996819 1 1
2.999999999993897 1 1
3.99999999999101 1 1
4.999999999992392 1 1
5.999999999993913 1 1
6.999999999995436 1 1
7.999999999996956 1 1
8.999999999998478 1 1
9.000000000000002 0 1
8.000000000000004 0 1
7.000000000000004 0 1
6.000000000000004 0 1
5.000000000000003 0 1
4.000000000000002 0 1
3.000000000000002 0 1
2.000000000000001 0 1
1 0 1
9.000000000000002 0 0
8.000000000000004 0 0
7.000000000000004 0 0
6.000000000000004 0 0
5.000000000000003 0 0
4.000000000000002 0 0
3.000000000000002 0 0
2.000000000000001 0 0
1 0 0
0.9999999999991859 1 0
1.999999999996819 1 0
2.999999999993897 1 0
3.99999999999101 1 0
4.999999999992392 1 0
5.999999999993913 1 0
6.999999999995436 1 0
7.999999999996956 1 0
8.999999999998478 1 0
4.499999999991701 1 0.5
1.499999999997957 1 0.5
3.499999999992547 1 0.5
2.499999999995349 1 0.5
0.499999999999593 1 0.5
9.499999999999238 1 0.5
6.499999999994674 1 0.5
5.499999999993153 1 0.5
8.499999999997717 1 0.5
7.499999999996196 1 0.5
0.499999999999593 0.5 0
1.499999999998493 0.5000000000002651 0
9.49999999999962 0.5 0
8.499999999997719 0.5000000000015237 0
2.499999999996944 0.500000000000553 0
7.499999999998353 0.4999999999998734 0
6.499999999997951 0.4999999999994716 0
3.499999999995592 0.5000000000008413 0
4.499999999991701 0.5000000000044953 0
5.500000000000002 0.4999999999969567 0
8.5 0 0.5000000000000009
9.5 0 0.5
7.500000000000004 0 0.5
4.500000000000003 0 0.5
5.500000000000002 0 0.5
2.500000000000001 0 0.5
1.5 0 0.5
0.5 0 0.5
6.500000000000004 0 0.5
3.500000000000002 0 0.5
0.499999999999593 0.5 1
1.499999999998493 0.5000000000002651 1
9.500000000000002 0.5 1
8.49999999999924 0.499999999999746 1
2.499999999996944 0.5000000000005529 1
7.500000000000004 0.4999999999984763 1
6.499999999997339 0.5 1
3.499999999995592 0.5000000000008413 1
4.499999999991701 0.5000000000044957 1
5.499999999996577 0.5 1

CELLS 160 640
3 11 12 44
3 38 44 39
3 11 44 46
3 38 46 44
3 13 14 50
3 15 16 52
3 40 50 41
3 42 52 43
3 2 43 49
3 6 49 16
3 12 13 51
3 14 15 53
3 39 51 40
3 41 53 42
3 3 7 48
3 3 48 35
3 7 8 48
3 35 48 45
3 8 45 48
3 12 39 44
3 8 9 45
3 35 45 36
3 9 47 45
3 36 45 47
3 10 11 46
3 37 46 38
3 37 47 46
3 10 46 47
3 9 10 47
3 36 47 37
3 2 49 6
3 12 51 39
3 13 50 40
3 13 40 51
3 14 41 50
3 14 53 41
3 15 52 42
3 15 42 53
3 16 49 43
3 16 43 52
3 63 60 29
3 40 60 63
3 60 59 28
3 41 59 60
3 38 39 62
3 42 43 57
3 40 41 60
3 2 56 43
3 39 40 63
3 41 42 59
3 38 62 61
3 0 3 54
3 3 35 54
3 32 33 58
3 33 34 55
3 31 32 61
3 0 54 34
3 35 55 54
3 30 31 62
3 1 26 56
3 1 56 2
3 26 43 56
3 26 57 43
3 27 28 59
3 28 29 60
3 29 30 63
3 30 62 39
3 30 39 63
3 26 27 57
3 35 36 55
3 31 61 62
3 37 38 61
3 36 37 58
3 36 58 55
3 34 54 55
3 37 61 58
3 33 55 58
3 32 58 61
3 27 59 57
3 42 57 59
3 72 66 19
3 71 70 25
3 32 73 69
3 34 70 71
3 28 66 72
3 73 23 69
3 1 5 65
3 1 65 26
3 5 17 65
3 17 64 26
3 17 26 65
3 21 22 67
3 30 67 31
3 18 19 66
3 23 24 69
3 24 25 70
3 27 66 28
3 32 69 33
3 33 70 34
3 0 71 4
3 0 34 71
3 4 71 25
3 19 20 72
3 20 21 68
3 20 68 29
3 20 29 72
3 22 23 73
3 22 31 67
3 22 73 31
3 24 33 69
3 24 70 33
3 28 72 29
3 29 68 30
3 31 73 32
3 21 67 68
3 30 68 67
3 17 18 64
3 26 64 27
3 18 66 64
3 27 64 66
3 17 76 77
3 77 76 16
3 11 82 12
3 15 77 16
3 13 80 14
3 6 16 76
3 12 83 13
3 14 79 15
3 11 81 82
3 4 74 7
3 7 74 8
3 23 78 24
3 24 75 25
3 22 81 23
3 4 25 74
3 8 74 75
3 21 82 22
3 5 76 17
3 5 6 76
3 18 79 19
3 12 82 21
3 12 21 83
3 13 20 80
3 13 83 20
3 14 19 79
3 14 80 19
3 19 80 20
3 20 83 21
3 17 77 18
3 18 77 79
3 15 79 77
3 8 75 9
3 22 82 81
3 10 81 11
3 9 78 10
3 9 75 78
3 25 75 74
3 10 78 81
3 24 78 75
3 23 81 78

CELL_TYPES 160
5
5
5
5
5
5
5
5
5
5
5
5
5
5
5
5
5
5
5
5
5
5
5
5
5
5
5
5
5
5
5
5
5
5
5
5
5
5
5
5
5
5
5
5
5
5
5
5
5
5
5
5
5
5
5
5
5
5
5
5
5
5
5
5
5
5
5
5
5
5
5
5
5
5
5
5
5
5
5
5
5
5
5
5
5
5
5
5
5
5
5
5
5
5
5
5
5
5
5
5
5
5
5
5
5
5
5
5
5
5
5
5
5
5
5
5
5
5
5
5
5
5
5
5
5
5
5
5
5
5
5
5
5
5
5
5
5
5
5
5
5
5
5
5
5
5
5
5
5
5
5
5
5
5
5
5
5
5
5
5
